<?xml version="1.0" encoding="UTF-8"?>
<model modelUID="r:6ac37faa-8948-4b21-b944-c6fc63376670(EntityInstance.generator.template.main@generator)">
  <persistence version="8" />
  <language namespace="ceab5195-25ea-4f22-9b92-103b95ca8c0c(jetbrains.mps.lang.core)" />
  <language namespace="d7706f63-9be2-479c-a3da-ae92af1e64d5(jetbrains.mps.lang.generator.generationContext)" />
  <language namespace="6d16a23c-68a7-4be5-ae4f-7d917e3a55b0(EntityInstance)" />
  <language namespace="b401a680-8325-4110-8fd3-84331ff25bef(jetbrains.mps.lang.generator)" />
  <devkit namespace="fbc25dd2-5da4-483a-8b19-70928e1b62d7(jetbrains.mps.devkit.general-purpose)" />
  <import index="tpck" modelUID="r:00000000-0000-4000-0000-011c89590288(jetbrains.mps.lang.core.structure)" version="0" implicit="yes" />
  <import index="tpf8" modelUID="r:00000000-0000-4000-0000-011c895902e8(jetbrains.mps.lang.generator.structure)" version="2" implicit="yes" />
  <root type="tpf8.MappingConfiguration" typeId="tpf8.1095416546421" id="4711519129169083793" nodeInfo="ng">
    <property name="name" nameId="tpck.1169194664001" value="main" />
  </root>
</model>

