<?xml version="1.0" encoding="UTF-8"?>
<model modelUID="r:733f4f5d-f055-4595-8541-8612311931f8(EntityLanguage.constraints)" version="0">
  <persistence version="8" />
  <language namespace="3f4bc5f5-c6c1-4a28-8b10-c83066ffa4a1(jetbrains.mps.lang.constraints)" />
  <devkit namespace="fbc25dd2-5da4-483a-8b19-70928e1b62d7(jetbrains.mps.devkit.general-purpose)" />
  <import index="msyo" modelUID="f:java_stub#6ed54515-acc8-4d1e-a16c-9fd6cfe951ea#jetbrains.mps.util(MPS.Core/jetbrains.mps.util@java_stub)" version="-1" />
  <import index="n8lx" modelUID="r:88323e03-9750-4311-88f4-37f0efa571b7(EntityLanguage.structure)" version="6" />
  <import index="tp1t" modelUID="r:00000000-0000-4000-0000-011c8959030d(jetbrains.mps.lang.constraints.structure)" version="9" implicit="yes" />
  <import index="tpck" modelUID="r:00000000-0000-4000-0000-011c89590288(jetbrains.mps.lang.core.structure)" version="0" implicit="yes" />
  <import index="tpee" modelUID="r:00000000-0000-4000-0000-011c895902ca(jetbrains.mps.baseLanguage.structure)" version="4" implicit="yes" />
  <import index="e2lb" modelUID="f:java_stub#6354ebe7-c22a-4a0f-ac54-50b52ab9b065#java.lang(JDK/java.lang@java_stub)" version="-1" implicit="yes" />
  <root type="tp1t.ConceptConstraints" typeId="tp1t.1213093968558" id="7180291233279831463" nodeInfo="ng">
    <link role="concept" roleId="tp1t.1213093996982" targetNodeId="n8lx.7180291233277854867" resolveInfo="Entity" />
    <node role="property" roleId="tp1t.1213098023997" type="tp1t.NodePropertyConstraint" typeId="tp1t.1147467115080" id="7180291233279831517" nodeInfo="ng">
      <link role="applicableProperty" roleId="tp1t.1147467295099" targetNodeId="tpck.1169194664001" resolveInfo="name" />
      <node role="propertyValidator" roleId="tp1t.1212097481299" type="tp1t.ConstraintFunction_PropertyValidator" typeId="tp1t.1212096972063" id="7180291233279831521" nodeInfo="nn">
        <node role="body" roleId="tpee.1137022507850" type="tpee.StatementList" typeId="tpee.1068580123136" id="7180291233279831522" nodeInfo="sn">
          <node role="statement" roleId="tpee.1068581517665" type="tpee.ExpressionStatement" typeId="tpee.1068580123155" id="7180291233279872682" nodeInfo="nn">
            <node role="expression" roleId="tpee.1068580123156" type="tpee.DotExpression" typeId="tpee.1197027756228" id="7180291233280008205" nodeInfo="nn">
              <node role="operand" roleId="tpee.1197027771414" type="tpee.StaticMethodCall" typeId="tpee.1081236700937" id="7180291233280004686" nodeInfo="nn">
                <link role="baseMethodDeclaration" roleId="tpee.1068499141037" targetNodeId="msyo.~NameUtil%dcapitalize(java%dlang%dString)%cjava%dlang%dString" resolveInfo="capitalize" />
                <link role="classConcept" roleId="tpee.1144433194310" targetNodeId="msyo.~NameUtil" resolveInfo="NameUtil" />
                <node role="actualArgument" roleId="tpee.1068499141038" type="tp1t.ConstraintsFunctionParameter_propertyValue" typeId="tp1t.1153138554286" id="7180291233280006042" nodeInfo="nn" />
              </node>
              <node role="operation" roleId="tpee.1197027833540" type="tpee.InstanceMethodCallOperation" typeId="tpee.1202948039474" id="7180291233280019294" nodeInfo="nn">
                <link role="baseMethodDeclaration" roleId="tpee.1068499141037" targetNodeId="e2lb.~String%dequals(java%dlang%dObject)%cboolean" resolveInfo="equals" />
                <node role="actualArgument" roleId="tpee.1068499141038" type="tp1t.ConstraintsFunctionParameter_propertyValue" typeId="tp1t.1153138554286" id="7180291233280021708" nodeInfo="nn" />
              </node>
            </node>
          </node>
        </node>
      </node>
    </node>
  </root>
</model>

